[
  {
    "id": "4obrhw0kqb2tai9",
    "name": "boards",
    "type": "base",
    "system": false,
    "schema": [
      {
        "system": false,
        "id": "vrtpi42g",
        "name": "name",
        "type": "text",
        "required": true,
        "presentable": false,
        "unique": false,
        "options": {
          "min": 1,
          "max": 255,
          "pattern": ""
        }
      },
      {
        "system": false,
        "id": "myulv4qy",
        "name": "description",
        "type": "text",
        "required": false,
        "presentable": false,
        "unique": false,
        "options": {
          "min": null,
          "max": null,
          "pattern": ""
        }
      },
      {
        "system": false,
        "id": "oec8hme6",
        "name": "owner",
        "type": "relation",
        "required": true,
        "presentable": false,
        "unique": false,
        "options": {
          "collectionId": "rpygl0g1g2vy3nx",
          "cascadeDelete": true,
          "minSelect": null,
          "maxSelect": 1,
          "displayFields": null
        }
      },
      {
        "system": false,
        "id": "vtljxtw4",
        "name": "members",
        "type": "relation",
        "required": false,
        "presentable": false,
        "unique": false,
        "options": {
          "collectionId": "rpygl0g1g2vy3nx",
          "cascadeDelete": false,
          "minSelect": null,
          "maxSelect": null,
          "displayFields": null
        }
      }
    ],
    "indexes": [],
    "listRule": "@request.auth.id != \"\"",
    "viewRule": "@request.auth.id != \"\"",
    "createRule": "@request.auth.id != \"\"",
    "updateRule": "(@request.auth.id != '' && owner.id = @request.auth.id)",
    "deleteRule": "(@request.auth.id != '' && owner.id = @request.auth.id)",
    "options": {}
  },
  {
    "id": "rpygl0g1g2vy3nx",
    "name": "users",
    "type": "auth",
    "system": false,
    "schema": [
      {
        "system": false,
        "id": "afcyi1iy",
        "name": "avatar",
        "type": "file",
        "required": false,
        "presentable": false,
        "unique": false,
        "options": {
          "maxSelect": 1,
          "maxSize": 4194304,
          "mimeTypes": ["image/png", "image/jpeg", "image/gif", "image/webp"],
          "thumbs": [],
          "protected": false
        }
      }
    ],
    "indexes": [],
    "listRule": "(@request.auth.id != '')",
    "viewRule": "",
    "createRule": "",
    "updateRule": "(@request.auth.id != \"\" && id = @request.auth.id)",
    "deleteRule": "(@request.auth.id != \"\" && id = @request.auth.id)",
    "options": {
      "allowEmailAuth": false,
      "allowOAuth2Auth": false,
      "allowUsernameAuth": true,
      "exceptEmailDomains": null,
      "manageRule": null,
      "minPasswordLength": 8,
      "onlyEmailDomains": null,
      "requireEmail": false
    }
  },
  {
    "id": "zjcj9vh2ewwp1d9",
    "name": "posts",
    "type": "base",
    "system": false,
    "schema": [
      {
        "system": false,
        "id": "p1rihy6o",
        "name": "parent_board",
        "type": "relation",
        "required": true,
        "presentable": false,
        "unique": false,
        "options": {
          "collectionId": "4obrhw0kqb2tai9",
          "cascadeDelete": true,
          "minSelect": null,
          "maxSelect": 1,
          "displayFields": null
        }
      },
      {
        "system": false,
        "id": "iqpzgo4z",
        "name": "author",
        "type": "relation",
        "required": true,
        "presentable": false,
        "unique": false,
        "options": {
          "collectionId": "rpygl0g1g2vy3nx",
          "cascadeDelete": false,
          "minSelect": null,
          "maxSelect": 1,
          "displayFields": null
        }
      },
      {
        "system": false,
        "id": "b0xtfzda",
        "name": "title",
        "type": "text",
        "required": true,
        "presentable": false,
        "unique": false,
        "options": {
          "min": null,
          "max": null,
          "pattern": ""
        }
      },
      {
        "system": false,
        "id": "bluy2jx5",
        "name": "attachments",
        "type": "file",
        "required": false,
        "presentable": false,
        "unique": false,
        "options": {
          "maxSelect": 99,
          "maxSize": 15728640,
          "mimeTypes": [],
          "thumbs": [],
          "protected": false
        }
      },
      {
        "system": false,
        "id": "qmatlzjf",
        "name": "content",
        "type": "text",
        "required": true,
        "presentable": false,
        "unique": false,
        "options": {
          "min": null,
          "max": null,
          "pattern": ""
        }
      },
      {
        "system": false,
        "id": "w5hnndwr",
        "name": "tags",
        "type": "text",
        "required": false,
        "presentable": false,
        "unique": false,
        "options": {
          "min": null,
          "max": null,
          "pattern": ""
        }
      }
    ],
    "indexes": [],
    "listRule": "(@request.auth.id != \"\")",
    "viewRule": "(@request.auth.id != \"\")",
    "createRule": "(@request.auth.id != '' && parent_board.members:each ~ @request.auth.id)",
    "updateRule": "(@request.auth.id != '' && author.id = @request.auth.id)",
    "deleteRule": "(@request.auth.id != '' && author.id = @request.auth.id || parent_board.owner.id = @request.auth.id)",
    "options": {}
  }
]
